Record 1 of 1
Del
Vendor Ref:
Lab Name:

Request Form ID:

SUBJECTID:

Collection Site:

Collected:
  /  /    
Received:
  /  /    
Reported:
  /  /    
Sent MRO:
  /  /    
Specimen:

Specimen Quantity:




The donor failed to provide a specimen at the designated collection site prior to this drug test registration's expiration date.


